Processor/error_tb.txt
WARNING: MemModel.v:34: $readmemh(ALU_TEST_inst.hex): Not enough words in the file for the requested range [0:4095].
VCD info: dumpfile myfile.dmp opened for output.
MOVA: a=xxxxxxxx, result=xxxxxxxx, c=0
MOVA: a=xxxxxxxx, result=xxxxxxxx, c=0
LSL: a=xxxxxxxx, b=00000003, result=xxxxxxxX, c=x
MOVA: a=xxxxxxxx, result=xxxxxxxx, c=0
LSL: a=xxxxxxxx, b=00000003, result=xxxxxxxX, c=x
MOVA: a=xxxxxxxx, result=xxxxxxxx, c=0
LSL: a=xxxxxxxx, b=00000003, result=xxxxxxxX, c=x
MOVA: a=xxxxxxxx, result=xxxxxxxx, c=0
MOVA: a=xxxxxxxx, result=xxxxxxxx, c=x
MOVA: a=xxxxxxxX, result=xxxxxxxX, c=x
MOVA: a=xxxxxxxx, result=xxxxxxxx, c=x
MOVA: a=xxxxxxxx, result=xxxxxxxx, c=0
MOVA: a=xxxxxxxx, result=xxxxxxxx, c=x
MOVA: a=xxxxxxxx, result=xxxxxxxx, c=0
MOVA: a=xxxxxxxx, result=xxxxxxxx, c=x
MOVA: a=xxxxxxxx, result=xxxxxxxx, c=0
MOVA: a=xxxxxxxx, result=xxxxxxxx, c=x
MOVA: a=xxxxxxxx, result=xxxxxxxx, c=0
MOVA: a=xxxxxxxx, result=xxxxxxxx, c=x
MOVA: a=xxxxxxxx, result=xxxxxxxx, c=0
MOVA: a=xxxxxxxx, result=xxxxxxxx, c=x
MOVA: a=xxxxxxxx, result=xxxxxxxx, c=0
MOVA: a=xxxxxxxx, result=xxxxxxxx, c=x
MOVA: a=xxxxxxxx, result=xxxxxxxx, c=0
LSL: a=xxxxxxxx, b=00000003, result=xxxxxxxX, c=x
MOVA: a=xxxxxxxx, result=xxxxxxxx, c=0
MOVA: a=xxxxxxxx, result=xxxxxxxx, c=x
MOVA: a=xxxxxxxX, result=xxxxxxxX, c=x
MOVA: a=xxxxxxxx, result=xxxxxxxx, c=x
MOVA: a=xxxxxxxx, result=xxxxxxxx, c=0
MOVA: a=xxxxxxxx, result=xxxxxxxx, c=x
MOVA: a=xxxxxxxx, result=xxxxxxxx, c=0
LSL: a=xxxxxxxx, b=00000003, result=xxxxxxxX, c=x
MOVA: a=xxxxxxxx, result=xxxxxxxx, c=0
LSL: a=xxxxxxxX, b=00000003, result=xxxxxxX0, c=x
MOVA: a=xxxxxxxx, result=xxxxxxxx, c=0
LSL: a=xxxxxxxX, b=00000003, result=xxxxxxX0, c=x
MOVA: a=xxxxxxxx, result=xxxxxxxx, c=0
LSL: a=xxxxxxxX, b=00000003, result=xxxxxxX0, c=x
MOVA: a=xxxxxxxx, result=xxxxxxxx, c=0
LSL: a=xxxxxxxX, b=00000003, result=xxxxxxX0, c=x
MOVA: a=xxxxxxxx, result=xxxxxxxx, c=0
LSL: a=xxxxxxX0, b=00000004, result=xxxxxX00, c=x
LSL: a=xxxxxxxx, b=00000004, result=xxxxxxx0, c=x
MOVA: a=xxxxxxx0, result=xxxxxxx0, c=0
MOVA: a=xxxxxxxx, result=xxxxxxxx, c=0
LSL: a=xxxxxxx0, b=00000004, result=xxxxxx00, c=x
LSL: a=xxxxxxxx, b=00000004, result=xxxxxxx0, c=x
MOVA: a=xxxxxxx0, result=xxxxxxx0, c=0
MOVA: a=xxxxxxxx, result=xxxxxxxx, c=0
LSL: a=xxxxxxx0, b=00000004, result=xxxxxx00, c=x
LSL: a=xxxxxxxx, b=00000004, result=xxxxxxx0, c=x
MOVA: a=xxxxxxx0, result=xxxxxxx0, c=0
MOVA: a=xxxxxxxx, result=xxxxxxxx, c=0
LSL: a=xxxxxxx0, b=00000004, result=xxxxxx00, c=x
LSL: a=xxxxxxxx, b=00000004, result=xxxxxxx0, c=x
MOVA: a=xxxxxxx0, result=xxxxxxx0, c=0
MOVA: a=xxxxxxxx, result=xxxxxxxx, c=0
LSL: a=xxxxxxx0, b=00000004, result=xxxxxx00, c=x
MOVA: a=xxxxxxxx, result=xxxxxxxx, c=0
LSL: a=xxxxxx00, b=00000004, result=xxxxx000, c=x
MOVA: a=xxxxxxxx, result=xxxxxxxx, c=0
LSL: a=xxxxxx00, b=00000004, result=xxxxx000, c=x
MOVA: a=xxxxxxxx, result=xxxxxxxx, c=0
LSL: a=xxxxxx00, b=00000004, result=xxxxx000, c=x
MOVA: a=xxxxxxxx, result=xxxxxxxx, c=0
LSL: a=xxxxxxxx, b=00000004, result=xxxxxxx0, c=x
MOVA: a=xxxxxxxx, result=xxxxxxxx, c=0
LSL: a=xxxxxxxx, b=00000004, result=xxxxxxx0, c=x
MOVA: a=xxxxxxxx, result=xxxxxxxx, c=0
LSL: a=xxxxxxxx, b=00000004, result=xxxxxxx0, c=x
MOVA: a=xxxxxxxx, result=xxxxxxxx, c=0
LSL: a=xxxxxxxx, b=00000004, result=xxxxxxx0, c=x
MOVA: a=xxxxxxxx, result=xxxxxxxx, c=0
LSL: a=xxxxxxx0, b=00000004, result=xxxxxx00, c=x
MOVA: a=xxxxxxxx, result=xxxxxxxx, c=0
LSL: a=xxxxxxx0, b=00000004, result=xxxxxx00, c=x
MOVA: a=xxxxxxxx, result=xxxxxxxx, c=0
LSL: a=xxxxxx00, b=00000004, result=xxxxx000, c=x
MOVA: a=xxxxxxxx, result=xxxxxxxx, c=0
LSL: a=xxxxxx00, b=00000004, result=xxxxx000, c=x
MOVA: a=xxxxxxxx, result=xxxxxxxx, c=0
LSL: a=xxxxxxxx, b=00000004, result=xxxxxxx0, c=x
MOVA: a=xxxxxxxx, result=xxxxxxxx, c=0
LSL: a=xxxxxxxx, b=00000004, result=xxxxxxx0, c=x
MOVA: a=xxxxxxxx, result=xxxxxxxx, c=0
LSL: a=xxxxxxxx, b=00000004, result=xxxxxxx0, c=x
MOVA: a=xxxxxxxx, result=xxxxxxxx, c=0
LSL: a=xxxxxxxx, b=00000004, result=xxxxxxx0, c=x
MOVA: a=xxxxxxxx, result=xxxxxxxx, c=0
LSL: a=xxxxxxx0, b=00000004, result=xxxxxx00, c=x
MOVA: a=xxxxxxxx, result=xxxxxxxx, c=0
LSL: a=xxxxxxx0, b=00000004, result=xxxxxx00, c=x
MOVA: a=xxxxxxxx, result=xxxxxxxx, c=0
LSL: a=xxxxxxx0, b=00000004, result=xxxxxx00, c=x
MOVA: a=xxxxxxxx, result=xxxxxxxx, c=0
LSL: a=xxxxxx00, b=00000004, result=xxxxx000, c=x
MOVA: a=xxxxxxxx, result=xxxxxxxx, c=0
LSL: a=xxxxxxxx, b=00000004, result=xxxxxxx0, c=x
MOVA: a=xxxxxxxx, result=xxxxxxxx, c=0
LSL: a=xxxxxxxx, b=00000004, result=xxxxxxx0, c=x
MOVA: a=xxxxxxxx, result=xxxxxxxx, c=0
LSL: a=xxxxxxxx, b=00000004, result=xxxxxxx0, c=x
MOVA: a=xxxxxxxx, result=xxxxxxxx, c=0
LSL: a=xxxxxxxx, b=00000004, result=xxxxxxx0, c=x
MOVA: a=xxxxxxxx, result=xxxxxxxx, c=0
LSL: a=xxxxxxx0, b=00000004, result=xxxxxx00, c=x
MOVA: a=xxxxxxxx, result=xxxxxxxx, c=0
MOVA: a=000000c2, result=000000c2, c=x
MOVA: a=000000c2, result=000000c2, c=0
MOVA: a=xxxxxxxx, result=xxxxxxxx, c=0
MOVA: a=xxxxxxxx, result=xxxxxxxx, c=x
MOVA: a=000000c2, result=000000c2, c=x
MOVA: a=xxxxxxxx, result=xxxxxxxx, c=x
MOVA: a=xxxxxxxx, result=xxxxxxxx, c=0
LSL: a=xxxxxxxx, b=00000009, result=xxxxxX00, c=x
MOVA: a=xxxxxX00, result=xxxxxX00, c=0
MOVA: a=xxxxxX00, result=xxxxxX00, c=0
MOVA: a=00Xxxxxx, result=00Xxxxxx, c=0
MOVB: b=00000000, result=00000000, c=x
MOVB: b=00000000, result=00000000, c=0
MOVB: b=00000000, result=00000000, c=x
MOVB: b=00000000, result=00000000, c=0
MOVB: b=00000000, result=00000000, c=x
MOVB: b=00000000, result=00000000, c=0
MOVB: b=00000000, result=00000000, c=x
MOVB: b=00000000, result=00000000, c=0
MOVA: a=00000000, result=00000000, c=x
MOVA: a=00000000, result=00000000, c=0
MOVA: a=00000000, result=00000000, c=x
MOVA: a=00000000, result=00000000, c=0
MOVA: a=00000000, result=00000000, c=x
MOVA: a=00000000, result=00000000, c=0
  ADD: a=000000ee, b=0000004c, result=0000013a, c=0
MOVA: a=000000f0, result=000000f0, c=0
MOVA: a=00000000, result=00000000, c=0
MOVA: a=xxxxxxxx, result=xxxxxxxx, c=0
  SUB: a=xxxxxxxx, b=00000002, ~b=fffffffd, result=xxxxxxxx, c=x
  ADD: a=xxxxxxxx, b=00000000, result=xxxxxxxx, c=x
MOVB: b=00000001, result=00000001, c=0
MOVA: a=xxxxxxxx, result=xxxxxxxx, c=0
MOVB: b=00000002, result=00000002, c=0
MOVA: a=xxxxxxxx, result=xxxxxxxx, c=0
MOVA: a=xxxxxxxx, result=xxxxxxxx, c=0
MOVA: a=xxxxxxxx, result=xxxxxxxx, c=0
  ADD: a=00000002, b=00000000, result=00000002, c=0
  ADD: a=xxxxxxxx, b=xxxxxxxx, result=xxxxxxxx, c=x
  ADD: a=00000002, b=xxxxxxxx, result=xxxxxxxx, c=x
  ADD: a=00000154, b=00000084, result=000001d8, c=0
MOVA: a=000001d8, result=000001d8, c=0
MOVA: a=00000002, result=00000002, c=0
MOVA: a=xxxxxxxx, result=xxxxxxxx, c=x
  ADD: a=00000002, b=00000002, result=00000004, c=0
  ADD: a=xxxxxxxx, b=00000002, result=xxxxxxxx, c=x
  ADD: a=00000002, b=00000002, result=00000004, c=0
  ADD: a=0000015c, b=00000080, result=000001dc, c=0
MOVA: a=000001dc, result=000001dc, c=0
MOVA: a=00000002, result=00000002, c=0
MOVA: a=xxxxxxxx, result=xxxxxxxx, c=0
MOVA: a=xxxxxxxx, result=xxxxxxxx, c=0
  SUB: a=xxxxxxxx, b=xxxxxxxx, ~b=xxxxxxxx, result=xxxxxxxx, c=x
  SUB: a=00000002, b=xxxxxxxx, ~b=xxxxxxxx, result=xxxxxxxx, c=x
  ADD: a=00000166, b=00000078, result=000001de, c=0
MOVA: a=00000002, result=00000002, c=0
MOVA: a=000001de, result=000001de, c=0
MOVA: a=00000002, result=00000002, c=0
MOVA: a=xxxxxxxx, result=xxxxxxxx, c=x
  SUB: a=xxxxxxxx, b=00000002, ~b=fffffffd, result=xxxxxxxx, c=x
  SUB: a=00000002, b=00000002, ~b=fffffffd, result=00000000, c=0
  ADD: a=0000016e, b=00000074, result=000001e2, c=0
MOVA: a=00000002, result=00000002, c=0
MOVA: a=000001e2, result=000001e2, c=0
MOVA: a=00000002, result=00000002, c=0
MOVA: a=xxxxxxxx, result=xxxxxxxx, c=0
MOVA: a=xxxxxxxx, result=xxxxxxxx, c=0
  ADD: a=00000178, b=00000070, result=000001e8, c=0
MOVA: a=000001e8, result=000001e8, c=0
MOVA: a=xxxxxxxx, result=xxxxxxxx, c=0
MOVA: a=xxxxxxxx, result=xxxxxxxx, c=0
  ADD: a=00000180, b=0000006c, result=000001ec, c=0
MOVA: a=000001ec, result=000001ec, c=0
MOVA: a=xxxxxxxx, result=xxxxxxxx, c=0
MOVA: a=xxxxxxxx, result=xxxxxxxx, c=x
MOVA: a=xxxxxxxx, result=xxxxxxxx, c=x
  ADD: a=0000018a, b=00000064, result=000001ee, c=0
MOVA: a=xxxxxxxx, result=xxxxxxxx, c=x
MOVA: a=000001ee, result=000001ee, c=x
MOVA: a=xxxxxxxx, result=xxxxxxxx, c=x
MOVA: a=xxxxxxxx, result=xxxxxxxx, c=x
MOVA: a=xxxxxxxx, result=xxxxxxxx, c=x
LSL: a=xxxxxxxx, b=xxxxxxxx, result=xxxxxxxx, c=x
  ADD: a=00000194, b=00000060, result=000001f4, c=0
MOVA: a=000001f4, result=000001f4, c=x
MOVA: a=xxxxxxxx, result=xxxxxxxx, c=x
MOVA: a=xxxxxxxx, result=xxxxxxxx, c=x
LSL: a=xxxxxxxx, b=00000002, result=xxxxxxxX, c=x
  ADD: a=0000019c, b=0000005c, result=000001f8, c=0
MOVA: a=000001f8, result=000001f8, c=x
MOVA: a=xxxxxxxx, result=xxxxxxxx, c=x
MOVA: a=xxxxxxxx, result=xxxxxxxx, c=x
MOVA: a=xxxxxxxx, result=xxxxxxxx, c=x
  ADD: a=000001a6, b=00000054, result=000001fa, c=0
MOVA: a=xxxxxxxx, result=xxxxxxxx, c=x
MOVA: a=000001fa, result=000001fa, c=x
MOVA: a=xxxxxxxx, result=xxxxxxxx, c=x
MOVA: a=xxxxxxxx, result=xxxxxxxx, c=x
MOVA: a=xxxxxxxx, result=xxxxxxxx, c=x
  ADD: a=000001b0, b=00000050, result=00000200, c=0
MOVA: a=00000200, result=00000200, c=x
MOVA: a=xxxxxxxx, result=xxxxxxxx, c=x
MOVA: a=xxxxxxxx, result=xxxxxxxx, c=x
MOVA: a=xxxxxxxx, result=xxxxxxxx, c=x
  ADD: a=000001ba, b=00000048, result=00000202, c=0
MOVA: a=xxxxxxxx, result=xxxxxxxx, c=x
MOVA: a=00000202, result=00000202, c=x
MOVA: a=xxxxxxxx, result=xxxxxxxx, c=x
MVN: b=xxxxxxxx, result=xxxxxxxx, c=x
  ADD: a=000001c2, b=00000044, result=00000206, c=0
MOVA: a=xxxxxxxx, result=xxxxxxxx, c=x
MOVA: a=00000206, result=00000206, c=x
MOVA: a=xxxxxxxx, result=xxxxxxxx, c=x
MOVA: a=xxxxxxxx, result=xxxxxxxx, c=x
  ADD: a=000001ca, b=00000040, result=0000020a, c=0
MOVA: a=xxxxxxxx, result=xxxxxxxx, c=x
MOVA: a=0000020a, result=0000020a, c=x
MOVA: a=xxxxxxxx, result=xxxxxxxx, c=x
MOVB: b=00000000, result=00000000, c=x
MOVA: a=00000000, result=00000000, c=x
MOVA: a=00000000, result=00000000, c=x
MOVA: a=xxxxxxxx, result=xxxxxxxx, c=x
  ADD: a=xxxxxxxx, b=00000002, result=xxxxxxxx, c=x
  ADD: a=xxxxxxxx, b=xxxxxxxx, result=xxxxxxxx, c=x
  ADD: a=xxxxxxxx, b=00000000, result=xxxxxxxx, c=x
MOVA: a=00000000, result=00000000, c=x
LSL: a=xxxxxxxx, b=00000008, result=xxxxxx00, c=x
MOVA: a=00000000, result=00000000, c=x
MOVA: a=xxxxxx00, result=xxxxxx00, c=x
LSL: a=xxxxxxxx, b=00000008, result=xxxxxx00, c=x
MOVA: a=xxxxxx00, result=xxxxxx00, c=x
LSL: a=00000000, b=00000008, result=00000000, c=0
MOVA: a=xxxxxx00, result=xxxxxx00, c=x
MOVA: a=00000000, result=00000000, c=x
LSL: a=00000000, b=00000008, result=00000000, c=0
MOVA: a=00000000, result=00000000, c=x
LSL: a=00000000, b=00000008, result=00000000, c=0
MOVA: a=00000000, result=00000000, c=x
LSL: a=00000000, b=00000008, result=00000000, c=0
MOVA: a=00000000, result=00000000, c=x
LSL: a=00000000, b=00000008, result=00000000, c=0
MOVA: a=00000000, result=00000000, c=x
LSL: a=00000000, b=00000008, result=00000000, c=0
MOVA: a=00000000, result=00000000, c=x
LSL: a=00000000, b=00000008, result=00000000, c=0
MOVA: a=00000000, result=00000000, c=x
LSL: a=00000000, b=00000008, result=00000000, c=0
MOVA: a=00000000, result=00000000, c=x
LSL: a=xxxxxxxx, b=00000008, result=xxxxxx00, c=x
MOVA: a=00000000, result=00000000, c=x
MOVA: a=xxxxxx00, result=xxxxxx00, c=x
LSL: a=xxxxxxxx, b=00000008, result=xxxxxx00, c=x
MOVA: a=xxxxxx00, result=xxxxxx00, c=x
LSL: a=xxxxxx00, b=00000009, result=xxxX0000, c=x
MOVA: a=xxxX0000, result=xxxX0000, c=x
LSL: a=xxxX0000, b=00000009, result=xX000000, c=x
MOVA: a=xX000000, result=xX000000, c=x
MOVA: a=xxxX0000, result=xxxX0000, c=x
MOVA: a=xxxX0000, result=xxxX0000, c=x
MOVA: a=xX000000, result=xX000000, c=x
MOVA: a=xxxX0000, result=xxxX0000, c=x
MOVA: a=xxxX0000, result=xxxX0000, c=x
MOVA: a=xxxX0000, result=xxxX0000, c=x
MOVA: a=xxxX0000, result=xxxX0000, c=x
MOVA: a=xxxX0000, result=xxxX0000, c=x
MOVA: a=xxxX0000, result=xxxX0000, c=x
MOVA: a=xxxX0000, result=xxxX0000, c=x
MOVA: a=xxxX0000, result=xxxX0000, c=x
MOVA: a=xxxX0000, result=xxxX0000, c=x
MOVA: a=xxxX0000, result=xxxX0000, c=x
MOVA: a=xxxX0000, result=xxxX0000, c=x
MOVA: a=xxxX0000, result=xxxX0000, c=x
MOVA: a=xxxX0000, result=xxxX0000, c=x
MOVA: a=xxxX0000, result=xxxX0000, c=x
LSL: a=xxxxxxxx, b=000000Xx, result=xxxxxxxx, c=x
LSL: a=xxxxxxxx, b=000000Xx, result=xxxxxxxx, c=x
LSL: a=xxxxxxxx, b=000000Xx, result=xxxxxxxx, c=x
LSL: a=xxxxxxxx, b=000000Xx, result=xxxxxxxx, c=x
LSL: a=xxxxxxxx, b=000000Xx, result=xxxxxxxx, c=x
LSL: a=xxxxxxxx, b=000000Xx, result=xxxxxxxx, c=x
LSL: a=xxxxxxxx, b=000000Xx, result=xxxxxxxx, c=x
LSL: a=xxxxxxxx, b=000000Xx, result=xxxxxxxx, c=x
LSL: a=xxxxxxxx, b=000000Xx, result=xxxxxxxx, c=x
LSL: a=xxxxxxxx, b=000000Xx, result=xxxxxxxx, c=x
LSL: a=xxxxxxxx, b=000000Xx, result=xxxxxxxx, c=x
LSL: a=xxxxxxxx, b=000000Xx, result=xxxxxxxx, c=x
LSL: a=xxxxxxxx, b=000000Xx, result=xxxxxxxx, c=x
LSL: a=xxxxxxxx, b=000000Xx, result=xxxxxxxx, c=x
LSL: a=xxxxxxxx, b=000000Xx, result=xxxxxxxx, c=x
LSL: a=xxxxxxxx, b=000000Xx, result=xxxxxxxx, c=x
LSL: a=xxxxxxxx, b=000000Xx, result=xxxxxxxx, c=x
LSL: a=xxxxxxxx, b=000000Xx, result=xxxxxxxx, c=x
LSL: a=xxxxxxxx, b=000000Xx, result=xxxxxxxx, c=x
LSL: a=xxxxxxxx, b=000000Xx, result=xxxxxxxx, c=x
LSL: a=xxxxxxxx, b=000000Xx, result=xxxxxxxx, c=x
LSL: a=xxxxxxxx, b=000000Xx, result=xxxxxxxx, c=x
LSL: a=xxxxxxxx, b=000000Xx, result=xxxxxxxx, c=x
LSL: a=xxxxxxxx, b=000000Xx, result=xxxxxxxx, c=x
LSL: a=xxxxxxxx, b=000000Xx, result=xxxxxxxx, c=x
LSL: a=xxxxxxxx, b=000000Xx, result=xxxxxxxx, c=x
LSL: a=xxxxxxxx, b=000000Xx, result=xxxxxxxx, c=x
LSL: a=xxxxxxxx, b=000000Xx, result=xxxxxxxx, c=x
LSL: a=xxxxxxxx, b=000000Xx, result=xxxxxxxx, c=x
LSL: a=xxxxxxxx, b=000000Xx, result=xxxxxxxx, c=x
LSL: a=xxxxxxxx, b=000000Xx, result=xxxxxxxx, c=x
LSL: a=xxxxxxxx, b=000000Xx, result=xxxxxxxx, c=x
LSL: a=xxxxxxxx, b=000000Xx, result=xxxxxxxx, c=x
LSL: a=xxxxxxxx, b=000000Xx, result=xxxxxxxx, c=x
LSL: a=xxxxxxxx, b=000000Xx, result=xxxxxxxx, c=x
LSL: a=xxxxxxxx, b=000000Xx, result=xxxxxxxx, c=x
LSL: a=xxxxxxxx, b=000000Xx, result=xxxxxxxx, c=x
LSL: a=xxxxxxxx, b=000000Xx, result=xxxxxxxx, c=x
LSL: a=xxxxxxxx, b=000000Xx, result=xxxxxxxx, c=x
LSL: a=xxxxxxxx, b=000000Xx, result=xxxxxxxx, c=x
LSL: a=xxxxxxxx, b=000000Xx, result=xxxxxxxx, c=x
LSL: a=xxxxxxxx, b=000000Xx, result=xxxxxxxx, c=x
LSL: a=xxxxxxxx, b=000000Xx, result=xxxxxxxx, c=x
LSL: a=xxxxxxxx, b=000000Xx, result=xxxxxxxx, c=x
LSL: a=xxxxxxxx, b=000000Xx, result=xxxxxxxx, c=x
LSL: a=xxxxxxxx, b=000000Xx, result=xxxxxxxx, c=x
LSL: a=xxxxxxxx, b=000000Xx, result=xxxxxxxx, c=x
LSL: a=xxxxxxxx, b=000000Xx, result=xxxxxxxx, c=x
LSL: a=xxxxxxxx, b=000000Xx, result=xxxxxxxx, c=x
LSL: a=xxxxxxxx, b=000000Xx, result=xxxxxxxx, c=x
LSL: a=xxxxxxxx, b=000000Xx, result=xxxxxxxx, c=x
LSL: a=xxxxxxxx, b=000000Xx, result=xxxxxxxx, c=x
LSL: a=xxxxxxxx, b=000000Xx, result=xxxxxxxx, c=x
LSL: a=xxxxxxxx, b=000000Xx, result=xxxxxxxx, c=x
LSL: a=xxxxxxxx, b=000000Xx, result=xxxxxxxx, c=x
LSL: a=xxxxxxxx, b=000000Xx, result=xxxxxxxx, c=x
LSL: a=xxxxxxxx, b=000000Xx, result=xxxxxxxx, c=x
LSL: a=xxxxxxxx, b=000000Xx, result=xxxxxxxx, c=x
LSL: a=xxxxxxxx, b=000000Xx, result=xxxxxxxx, c=x
LSL: a=xxxxxxxx, b=000000Xx, result=xxxxxxxx, c=x
LSL: a=xxxxxxxx, b=000000Xx, result=xxxxxxxx, c=x
LSL: a=xxxxxxxx, b=000000Xx, result=xxxxxxxx, c=x
LSL: a=xxxxxxxx, b=000000Xx, result=xxxxxxxx, c=x
LSL: a=xxxxxxxx, b=000000Xx, result=xxxxxxxx, c=x
LSL: a=xxxxxxxx, b=000000Xx, result=xxxxxxxx, c=x
LSL: a=xxxxxxxx, b=000000Xx, result=xxxxxxxx, c=x
LSL: a=xxxxxxxx, b=000000Xx, result=xxxxxxxx, c=x
LSL: a=xxxxxxxx, b=000000Xx, result=xxxxxxxx, c=x
LSL: a=xxxxxxxx, b=000000Xx, result=xxxxxxxx, c=x
LSL: a=xxxxxxxx, b=000000Xx, result=xxxxxxxx, c=x
LSL: a=xxxxxxxx, b=000000Xx, result=xxxxxxxx, c=x
LSL: a=xxxxxxxx, b=000000Xx, result=xxxxxxxx, c=x
LSL: a=xxxxxxxx, b=000000Xx, result=xxxxxxxx, c=x
LSL: a=xxxxxxxx, b=000000Xx, result=xxxxxxxx, c=x
LSL: a=xxxxxxxx, b=000000Xx, result=xxxxxxxx, c=x
LSL: a=xxxxxxxx, b=000000Xx, result=xxxxxxxx, c=x
LSL: a=xxxxxxxx, b=000000Xx, result=xxxxxxxx, c=x
LSL: a=xxxxxxxx, b=000000Xx, result=xxxxxxxx, c=x
LSL: a=xxxxxxxx, b=000000Xx, result=xxxxxxxx, c=x
LSL: a=xxxxxxxx, b=000000Xx, result=xxxxxxxx, c=x
LSL: a=xxxxxxxx, b=000000Xx, result=xxxxxxxx, c=x
LSL: a=xxxxxxxx, b=000000Xx, result=xxxxxxxx, c=x
LSL: a=xxxxxxxx, b=000000Xx, result=xxxxxxxx, c=x
LSL: a=xxxxxxxx, b=000000Xx, result=xxxxxxxx, c=x
LSL: a=xxxxxxxx, b=000000Xx, result=xxxxxxxx, c=x
LSL: a=xxxxxxxx, b=000000Xx, result=xxxxxxxx, c=x
LSL: a=xxxxxxxx, b=000000Xx, result=xxxxxxxx, c=x
LSL: a=xxxxxxxx, b=000000Xx, result=xxxxxxxx, c=x
LSL: a=xxxxxxxx, b=000000Xx, result=xxxxxxxx, c=x
LSL: a=xxxxxxxx, b=000000Xx, result=xxxxxxxx, c=x
LSL: a=xxxxxxxx, b=000000Xx, result=xxxxxxxx, c=x
LSL: a=xxxxxxxx, b=000000Xx, result=xxxxxxxx, c=x
LSL: a=xxxxxxxx, b=000000Xx, result=xxxxxxxx, c=x
LSL: a=xxxxxxxx, b=000000Xx, result=xxxxxxxx, c=x
LSL: a=xxxxxxxx, b=000000Xx, result=xxxxxxxx, c=x
LSL: a=xxxxxxxx, b=000000Xx, result=xxxxxxxx, c=x
LSL: a=xxxxxxxx, b=000000Xx, result=xxxxxxxx, c=x
LSL: a=xxxxxxxx, b=000000Xx, result=xxxxxxxx, c=x
LSL: a=xxxxxxxx, b=000000Xx, result=xxxxxxxx, c=x
LSL: a=xxxxxxxx, b=000000Xx, result=xxxxxxxx, c=x
LSL: a=xxxxxxxx, b=000000Xx, result=xxxxxxxx, c=x
LSL: a=xxxxxxxx, b=000000Xx, result=xxxxxxxx, c=x
LSL: a=xxxxxxxx, b=000000Xx, result=xxxxxxxx, c=x
LSL: a=xxxxxxxx, b=000000Xx, result=xxxxxxxx, c=x
LSL: a=xxxxxxxx, b=000000Xx, result=xxxxxxxx, c=x
LSL: a=xxxxxxxx, b=000000Xx, result=xxxxxxxx, c=x
LSL: a=xxxxxxxx, b=000000Xx, result=xxxxxxxx, c=x
LSL: a=xxxxxxxx, b=000000Xx, result=xxxxxxxx, c=x
LSL: a=xxxxxxxx, b=000000Xx, result=xxxxxxxx, c=x
LSL: a=xxxxxxxx, b=000000Xx, result=xxxxxxxx, c=x
LSL: a=xxxxxxxx, b=000000Xx, result=xxxxxxxx, c=x
LSL: a=xxxxxxxx, b=000000Xx, result=xxxxxxxx, c=x
LSL: a=xxxxxxxx, b=000000Xx, result=xxxxxxxx, c=x
LSL: a=xxxxxxxx, b=000000Xx, result=xxxxxxxx, c=x
LSL: a=xxxxxxxx, b=000000Xx, result=xxxxxxxx, c=x
LSL: a=xxxxxxxx, b=000000Xx, result=xxxxxxxx, c=x
LSL: a=xxxxxxxx, b=000000Xx, result=xxxxxxxx, c=x
LSL: a=xxxxxxxx, b=000000Xx, result=xxxxxxxx, c=x
LSL: a=xxxxxxxx, b=000000Xx, result=xxxxxxxx, c=x
LSL: a=xxxxxxxx, b=000000Xx, result=xxxxxxxx, c=x
LSL: a=xxxxxxxx, b=000000Xx, result=xxxxxxxx, c=x
LSL: a=xxxxxxxx, b=000000Xx, result=xxxxxxxx, c=x
LSL: a=xxxxxxxx, b=000000Xx, result=xxxxxxxx, c=x
LSL: a=xxxxxxxx, b=000000Xx, result=xxxxxxxx, c=x
LSL: a=xxxxxxxx, b=000000Xx, result=xxxxxxxx, c=x
LSL: a=xxxxxxxx, b=000000Xx, result=xxxxxxxx, c=x
LSL: a=xxxxxxxx, b=000000Xx, result=xxxxxxxx, c=x
LSL: a=xxxxxxxx, b=000000Xx, result=xxxxxxxx, c=x
LSL: a=xxxxxxxx, b=000000Xx, result=xxxxxxxx, c=x
LSL: a=xxxxxxxx, b=000000Xx, result=xxxxxxxx, c=x
LSL: a=xxxxxxxx, b=000000Xx, result=xxxxxxxx, c=x
LSL: a=xxxxxxxx, b=000000Xx, result=xxxxxxxx, c=x
LSL: a=xxxxxxxx, b=000000Xx, result=xxxxxxxx, c=x
LSL: a=xxxxxxxx, b=000000Xx, result=xxxxxxxx, c=x
LSL: a=xxxxxxxx, b=000000Xx, result=xxxxxxxx, c=x
LSL: a=xxxxxxxx, b=000000Xx, result=xxxxxxxx, c=x
LSL: a=xxxxxxxx, b=000000Xx, result=xxxxxxxx, c=x
LSL: a=xxxxxxxx, b=000000Xx, result=xxxxxxxx, c=x
LSL: a=xxxxxxxx, b=000000Xx, result=xxxxxxxx, c=x
LSL: a=xxxxxxxx, b=000000Xx, result=xxxxxxxx, c=x
LSL: a=xxxxxxxx, b=000000Xx, result=xxxxxxxx, c=x
LSL: a=xxxxxxxx, b=000000Xx, result=xxxxxxxx, c=x
LSL: a=xxxxxxxx, b=000000Xx, result=xxxxxxxx, c=x
LSL: a=xxxxxxxx, b=000000Xx, result=xxxxxxxx, c=x
LSL: a=xxxxxxxx, b=000000Xx, result=xxxxxxxx, c=x
LSL: a=xxxxxxxx, b=000000Xx, result=xxxxxxxx, c=x
LSL: a=xxxxxxxx, b=000000Xx, result=xxxxxxxx, c=x
LSL: a=xxxxxxxx, b=000000Xx, result=xxxxxxxx, c=x
LSL: a=xxxxxxxx, b=000000Xx, result=xxxxxxxx, c=x
LSL: a=xxxxxxxx, b=000000Xx, result=xxxxxxxx, c=x
LSL: a=xxxxxxxx, b=000000Xx, result=xxxxxxxx, c=x
LSL: a=xxxxxxxx, b=000000Xx, result=xxxxxxxx, c=x
LSL: a=xxxxxxxx, b=000000Xx, result=xxxxxxxx, c=x
LSL: a=xxxxxxxx, b=000000Xx, result=xxxxxxxx, c=x
LSL: a=xxxxxxxx, b=000000Xx, result=xxxxxxxx, c=x
LSL: a=xxxxxxxx, b=000000Xx, result=xxxxxxxx, c=x
LSL: a=xxxxxxxx, b=000000Xx, result=xxxxxxxx, c=x
LSL: a=xxxxxxxx, b=000000Xx, result=xxxxxxxx, c=x
LSL: a=xxxxxxxx, b=000000Xx, result=xxxxxxxx, c=x
LSL: a=xxxxxxxx, b=000000Xx, result=xxxxxxxx, c=x
LSL: a=xxxxxxxx, b=000000Xx, result=xxxxxxxx, c=x
LSL: a=xxxxxxxx, b=000000Xx, result=xxxxxxxx, c=x
LSL: a=xxxxxxxx, b=000000Xx, result=xxxxxxxx, c=x
LSL: a=xxxxxxxx, b=000000Xx, result=xxxxxxxx, c=x
LSL: a=xxxxxxxx, b=000000Xx, result=xxxxxxxx, c=x
LSL: a=xxxxxxxx, b=000000Xx, result=xxxxxxxx, c=x
LSL: a=xxxxxxxx, b=000000Xx, result=xxxxxxxx, c=x
LSL: a=xxxxxxxx, b=000000Xx, result=xxxxxxxx, c=x
LSL: a=xxxxxxxx, b=000000Xx, result=xxxxxxxx, c=x
LSL: a=xxxxxxxx, b=000000Xx, result=xxxxxxxx, c=x
LSL: a=xxxxxxxx, b=000000Xx, result=xxxxxxxx, c=x
